{
    "SIBYL": [
        709590349,
        705519392,
        652113804,
        982858663
    ],
    "INSPECTORS": [
        895373440,
        792109647,
        570787098,
        615304572,
        324460662
    ],
    "ENFORCERS": [
        276375010,
        370663289,
        660565862,
        528781117,
        596701090,
        472245282,
        394012198,
        771130169,
        321750518,
        799678999,
        615304572,
        486514034,
        367222759 59038234,
        256304538,
        745191358 570787098 439595878,
        596701090,
        459034222 971324495 365085145 677721265 1096215023 608750088 962286971 565218601,
        731736814
    ],
}